<svg width="200" height="84" viewBox="0 0 200 84" fill="none" xmlns="http://www.w3.org/2000/svg">
<g clip-path="url(#clip0)">
<path d="M43.923 47.8284C43.8413 48.2869 43.8491 48.377 43.7791 48.8511C43.7091 49.3253 43.6352 49.8112 43.5536 50.2892C43.3894 51.2466 43.0468 52.3585 42.7758 53.2909C42.5054 54.2303 42.1246 55.1473 41.7142 56.0337C41.3022 56.9346 40.802 57.7918 40.2209 58.5924C39.6363 59.4003 38.9588 60.1355 38.2027 60.7828C37.4397 61.4313 36.6014 61.9839 35.7061 62.4286C34.812 62.8699 33.8733 63.2127 32.9063 63.4513C31.9448 63.6866 30.9652 63.8387 29.9781 63.9058C29.7331 63.9254 29.4881 63.9372 29.2431 63.945L28.5159 63.9685C28.022 63.9685 27.5204 63.9685 27.0226 63.9294C26.0223 63.8549 25.0328 63.6723 24.0711 63.3847C23.1054 63.0974 22.1742 62.7032 21.2946 62.2092C20.4184 61.7085 19.596 61.1175 18.8408 60.4459C17.3517 59.0917 16.0897 57.5039 15.1038 55.7437C14.6082 54.8789 14.1666 53.9837 13.7816 53.0635C13.5911 52.6011 13.4122 52.1348 13.245 51.6607C13.1633 51.4256 13.0855 51.1866 13.0116 50.9475C12.9728 50.8261 12.9378 50.7046 12.9028 50.5831L12.8522 50.395L12.8289 50.301L12.8016 50.1952L13.6766 50.9005L1.67606 51.0494H0.983873L0.715552 50.399L0.672777 50.2971L0.637778 50.207L0.57167 50.0345C0.528895 49.917 0.490008 49.8034 0.451121 49.6858C0.377235 49.4546 0.311127 49.2234 0.252797 48.9844C0.126423 48.5122 0.0418363 48.0297 3.07867e-05 47.5424C-0.0404218 46.993 0.00285557 46.4407 0.128358 45.9045C0.205095 45.6121 0.314687 45.3294 0.455009 45.062C0.748526 44.4861 1.19737 44.0053 1.74995 43.6749C1.80286 43.6403 1.85352 43.6024 1.90161 43.5613L2.08438 43.4045C2.34444 43.1574 2.57896 42.8843 2.78434 42.5895C3.22351 41.9534 3.58026 41.2634 3.84596 40.5362L3.77596 40.8105V40.7126V40.6303L3.80318 40.4735C3.82392 40.3664 3.84337 40.2646 3.86151 40.1679C3.9004 39.9641 3.94707 39.7761 3.99373 39.5645C4.09095 39.1726 4.20372 38.7808 4.33205 38.3889C4.58873 37.6076 4.91408 36.851 5.30422 36.128C5.70388 35.3819 6.18801 34.685 6.74693 34.0512C7.32352 33.3968 7.99161 32.8305 8.73017 32.3702L8.86239 32.2879L9.04127 32.237C17.0779 29.8389 25.1068 27.4316 33.1279 25.0153L45.1829 21.3907L48.22 20.4738L49.721 20.0232C50.1643 19.886 50.6387 19.7175 51.1054 19.5451C52.0465 19.1924 52.9914 18.8045 53.9286 18.3931C54.8658 17.9816 55.7952 17.5545 56.7168 17.1039C58.56 16.2027 60.3748 15.2361 62.161 14.2043L62.5187 13.9927L62.8687 13.7967L63.5687 13.4049C64.0353 13.1463 64.502 12.8916 64.9725 12.6408C65.9136 12.1392 66.8611 11.6494 67.8152 11.1714C71.6325 9.25714 75.5518 7.55656 79.5552 6.07741C83.5691 4.59456 87.6689 3.35927 91.8318 2.37839C96.0024 1.39957 100.236 0.716093 104.501 0.332962C106.644 0.140958 108.779 0.0273234 110.956 0.00381275C113.134 -0.0196979 115.273 0.0429972 117.431 0.199735C121.762 0.509446 126.057 1.20973 130.264 2.29219C134.483 3.38517 138.591 4.87687 142.533 6.74746C144.506 7.68528 146.431 8.7106 148.307 9.82344C149.245 10.3799 150.17 10.9598 151.08 11.5554C151.535 11.8571 151.986 12.1588 152.437 12.4684L153.106 12.9308L153.273 13.0483L153.359 13.1071L153.487 13.209L153.526 13.2364L153.604 13.2952L153.658 13.3383L153.783 13.4284C155.249 14.4642 156.871 15.2579 158.585 15.7795C160.435 16.3485 162.327 16.7665 164.243 17.0295L164.998 17.1353L165.776 17.2371L167.331 17.4448C168.358 17.582 169.392 17.7113 170.423 17.8367C172.484 18.0953 174.552 18.3382 176.617 18.5733C178.682 18.8084 180.755 19.024 182.839 19.2316L183.29 19.2747H183.399H183.496L183.683 19.3061C183.807 19.3296 183.928 19.357 184.045 19.3884C184.471 19.5013 184.885 19.6562 185.281 19.8507C185.928 20.1737 186.537 20.5679 187.097 21.0263C187.577 21.436 188.032 21.873 188.462 22.335C188.882 22.7622 189.275 23.1971 189.652 23.6281C190.399 24.498 191.079 25.3758 191.733 26.2574C192.386 27.1391 193.004 28.0207 193.607 28.8984L195.392 31.4925C195.684 31.9117 195.975 32.3271 196.267 32.7268C196.559 33.1264 196.85 33.5105 197.118 33.8239L197.239 33.965L197.286 34.0316C197.974 35.0171 198.566 36.0668 199.055 37.1664C199.315 37.7615 199.53 38.3759 199.697 39.0041C199.877 39.6876 199.977 40.3898 199.996 41.0966C200.019 41.8691 199.919 42.6403 199.701 43.381C199.475 44.1406 199.118 44.8542 198.647 45.4891C198.204 46.0825 197.68 46.6101 197.091 47.0565C196.562 47.4568 195.995 47.8046 195.4 48.0949C194.845 48.3652 194.274 48.5982 193.689 48.7924C193.125 48.9844 192.561 49.1372 191.997 49.2704C190.902 49.5219 189.793 49.7051 188.676 49.819C186.522 50.0302 184.357 50.0996 182.194 50.0267L184.064 48.4593C184.064 48.522 184.045 48.5534 184.037 48.5886L184.014 48.6944L183.967 48.8904C183.932 49.0157 183.901 49.1411 183.866 49.2822C183.796 49.5291 183.718 49.7681 183.64 50.0032C183.481 50.4734 183.302 50.9358 183.111 51.3864C182.723 52.2914 182.267 53.1652 181.746 54C181.223 54.8304 180.634 55.6167 179.985 56.3511C179.33 57.091 178.61 57.7703 177.834 58.3808C176.285 59.5798 174.531 60.4829 172.659 61.0454C170.83 61.585 168.933 61.8491 167.028 61.8291H167.156H167.039H166.946H166.763H166.409C166.176 61.8291 165.947 61.8291 165.717 61.8291C165.262 61.8056 164.807 61.7625 164.36 61.6958C163.463 61.5661 162.581 61.3523 161.723 61.0571C160.006 60.4801 158.428 59.5456 157.092 58.3142C156.437 57.7055 155.849 57.0276 155.338 56.2923C154.835 55.5675 154.399 54.7975 154.036 53.9922C153.32 52.3895 152.869 50.015 152.624 48.3222L153.215 47.4131C153.654 49.0197 154.246 52.0565 155.066 53.4554C155.861 54.8423 156.918 56.059 158.177 57.0368C158.796 57.5071 159.462 57.9115 160.164 58.2437C160.862 58.577 161.592 58.8395 162.342 59.0274C163.092 59.2071 163.855 59.3212 164.624 59.3683C165.013 59.3918 165.402 59.3957 165.772 59.3683C165.962 59.3683 166.16 59.3683 166.335 59.3369L166.608 59.3095L166.74 59.2899H166.798H166.841H166.969C168.606 59.1944 170.22 58.8578 171.76 58.2907C172.507 58.0084 173.228 57.661 173.915 57.2523C174.592 56.8456 175.231 56.3774 175.824 55.8534C177.004 54.7971 177.996 53.5446 178.756 52.1505C179.137 51.4493 179.467 50.7212 179.744 49.9719C179.88 49.58 180.004 49.2195 180.109 48.8394C180.164 48.6513 180.21 48.4476 180.253 48.2752C180.276 48.185 180.296 48.091 180.315 48.0009L180.339 47.8716V47.8128C180.339 47.8128 180.339 47.7736 180.339 47.7814L180.728 46.2376L182.209 46.1984C183.22 46.167 184.224 46.1161 185.219 46.0377C186.215 45.9594 187.195 45.8457 188.159 45.6929C189.102 45.5473 190.035 45.3471 190.955 45.0934C191.802 44.8626 192.621 44.538 193.397 44.1255C193.729 43.9461 194.043 43.7348 194.334 43.4947C194.572 43.2965 194.782 43.0657 194.956 42.8089C195.098 42.5958 195.201 42.3599 195.264 42.1114C195.322 41.8428 195.341 41.5667 195.318 41.2925C195.236 40.558 195.021 39.8449 194.684 39.1883C194.284 38.3901 193.81 37.6318 193.269 36.9234L193.432 37.1311C193.004 36.6609 192.654 36.2181 192.3 35.7753C191.947 35.3325 191.635 34.9015 191.324 34.4822C190.683 33.6163 190.064 32.7659 189.446 31.9274C188.828 31.0889 188.213 30.2699 187.591 29.4784C186.969 28.6868 186.335 27.911 185.69 27.2096C185.367 26.853 185.044 26.516 184.717 26.2065C184.412 25.9122 184.092 25.6349 183.757 25.3758C183.5 25.1741 183.222 25.0007 182.929 24.8585C182.852 24.8235 182.773 24.796 182.691 24.7762L182.361 24.7527C180.258 24.5908 178.156 24.4118 176.053 24.2159C173.951 24.02 171.854 23.7992 169.761 23.5537C168.711 23.4361 167.665 23.3068 166.615 23.1618L165.06 22.962L164.282 22.8562L163.477 22.7465C161.236 22.4491 159.024 21.9562 156.867 21.2731C155.741 20.9106 154.643 20.468 153.581 19.9487C152.48 19.4102 151.431 18.7715 150.446 18.0404L150.256 17.8954L150.155 17.8171L150.077 17.7544L150.038 17.723C150.065 17.7465 149.921 17.6329 150.092 17.7622L150.015 17.7074L149.863 17.5937L149.245 17.1549C148.836 16.861 148.42 16.5749 148 16.2889C147.168 15.7246 146.32 15.1721 145.465 14.6431C143.746 13.5852 141.992 12.5938 140.192 11.6886C136.59 9.87165 132.829 8.39336 128.957 7.27253C125.065 6.15235 121.079 5.39293 117.05 5.00375C115.036 4.80783 113.006 4.69811 110.976 4.6746C108.946 4.65109 106.908 4.71379 104.875 4.85485C100.798 5.15104 96.7476 5.73766 92.7534 6.61031C88.7336 7.48678 84.7702 8.60821 80.8851 9.96842C76.9951 11.3262 73.1811 12.8959 69.4601 14.6706C68.5268 15.1173 67.6052 15.5718 66.6835 16.042L65.3303 16.7591L64.6497 17.1235L64.3075 17.3077L63.9848 17.4879C62.113 18.5328 60.2037 19.5072 58.2567 20.4111C57.2845 20.8617 56.3124 21.2927 55.3091 21.7042C54.3058 22.1156 53.3142 22.4879 52.2837 22.8797C51.7626 23.06 51.2454 23.2363 50.6854 23.3969L49.1688 23.8201L46.1395 24.6626L34.0068 28.0168C25.926 30.2529 17.8427 32.4734 9.75679 34.6782L10.064 34.5449C9.52671 34.8641 9.03814 35.2601 8.61351 35.7205C8.1656 36.1955 7.7741 36.7215 7.4469 37.2878C7.11423 37.8944 6.83449 38.529 6.61083 39.1844C6.49417 39.5096 6.39306 39.8387 6.30362 40.1679C6.26085 40.3325 6.21807 40.501 6.17918 40.6655C6.17918 40.7478 6.14418 40.8301 6.12863 40.9085L6.1053 41.03V41.1279L6.07419 41.3003L6.0353 41.3983C5.68066 42.3095 5.20868 43.1698 4.63148 43.957C4.32456 44.3703 3.9781 44.7523 3.59708 45.0973C3.49598 45.1835 3.39098 45.2736 3.27821 45.3559C3.15461 45.4522 3.02469 45.5399 2.88934 45.6185C2.78906 45.6758 2.69631 45.7456 2.61324 45.8261C2.44301 46.006 2.32237 46.2275 2.26326 46.4688C2.18551 46.7771 2.15276 47.0952 2.16604 47.4131C2.18956 47.7895 2.24551 48.1632 2.33325 48.5299C2.37603 48.7179 2.42269 48.9217 2.48102 49.0941C2.50825 49.1842 2.53547 49.2783 2.56658 49.3684L2.61324 49.5016L2.65602 49.6153L1.67606 48.9805L13.6766 49.1255H14.3999L14.5555 49.8229V49.8935L14.5749 49.9719L14.6138 50.1325C14.6449 50.2422 14.6721 50.3519 14.7032 50.4656C14.7654 50.685 14.8316 50.9044 14.9015 51.1239C15.0415 51.5627 15.1971 52.0016 15.3643 52.4326C15.6999 53.2965 16.0896 54.138 16.5309 54.9522C17.3913 56.5825 18.506 58.0629 19.8324 59.3369C20.496 59.9579 21.2204 60.5093 21.9945 60.9827C22.7701 61.4523 23.5959 61.8322 24.4561 62.1151C25.3258 62.4054 26.2241 62.5998 27.1354 62.6951C27.5904 62.7421 28.0493 62.7656 28.5081 62.7695H29.2159C29.4492 62.7695 29.6786 62.7695 29.9119 62.7695C30.8276 62.7297 31.7382 62.6117 32.634 62.4168C33.5316 62.2242 34.4053 61.9325 35.2395 61.5469C36.0728 61.1627 36.8564 60.6771 37.5727 60.101C38.2943 59.5264 38.9468 58.8689 39.5171 58.1418C40.0844 57.4009 40.578 56.6055 40.9909 55.7672C41.4082 54.9214 41.7617 54.0451 42.0486 53.1458C42.3344 52.245 42.572 51.3294 42.7602 50.4029C42.8574 49.9366 42.943 49.4664 43.0247 48.9922C43.1063 48.5181 43.2813 48.1576 43.3824 47.6678L43.923 47.8284Z" fill="#0687B3"/>
<path d="M57.4128 63.9645H57.3428C57.0872 63.9477 56.8459 63.8393 56.6626 63.6589C56.4793 63.4786 56.3661 63.2381 56.3434 62.9809L54.8307 45.9122L54.2047 47.6363C54.1252 47.8483 53.9838 48.0311 53.7992 48.1606C53.6145 48.29 53.3952 48.3599 53.1703 48.3612H44.0046C43.8466 48.3487 43.699 48.2765 43.5914 48.1592C43.4838 48.042 43.4241 47.8881 43.4241 47.7284C43.4241 47.5686 43.4838 47.4148 43.5914 47.2975C43.699 47.1802 43.8466 47.1081 44.0046 47.0955H53.0614L54.6169 42.8283C54.6667 42.6939 54.7603 42.5805 54.8823 42.5065C55.0043 42.4325 55.1476 42.4024 55.2888 42.421C55.43 42.4397 55.5608 42.506 55.6598 42.6091C55.7588 42.7123 55.8202 42.8462 55.834 42.989L57.3895 60.4418L59.8161 22.3349C59.8268 22.1744 59.8973 22.0239 60.0133 21.9135C60.1294 21.8031 60.2825 21.7409 60.4421 21.7393C60.6008 21.7398 60.7534 21.8006 60.8694 21.9096C60.9855 22.0186 61.0565 22.1676 61.0682 22.327L62.7093 44.9717L64.0548 38.859C64.0856 38.7186 64.1627 38.593 64.2736 38.5026C64.3846 38.4122 64.5226 38.3624 64.6653 38.3613C64.8073 38.3618 64.9452 38.4103 65.0566 38.4991C65.168 38.5879 65.2466 38.7119 65.2797 38.8511L67.1968 47.119H74.8187L76.763 30.881C76.7819 30.7279 76.8555 30.587 76.97 30.4846C77.0845 30.3822 77.2321 30.3253 77.3852 30.3246C77.5398 30.3247 77.6888 30.3824 77.8037 30.4865C77.9185 30.5907 77.9911 30.734 78.0074 30.8888L80.1073 50.0579L81.62 42.0368C81.6467 41.897 81.7189 41.7701 81.8253 41.6764C81.9317 41.5827 82.0661 41.5275 82.2072 41.5196C82.3488 41.5124 82.4886 41.5539 82.6037 41.6372C82.7188 41.7204 82.8025 41.8406 82.8411 41.978L84.2916 46.978H92.8467C91.9718 46.1943 91.0696 45.3636 90.2063 44.5329C89.0695 43.465 88.0127 42.3138 87.0448 41.0886C86.039 39.8489 85.2977 38.4136 84.8671 36.8723C84.7714 36.4778 84.7025 36.0772 84.661 35.6733C84.6224 35.2709 84.6133 34.8662 84.6338 34.4625C84.6632 33.6575 84.7939 32.8597 85.0226 32.0879C85.2504 31.3143 85.58 30.575 86.0026 29.8896C87.2794 27.8066 89.3216 26.3164 91.684 25.7439C91.8084 25.7126 91.9407 25.6851 92.0729 25.6616L92.2518 25.6264H92.3023L92.489 25.595C92.6134 25.595 92.7456 25.5558 92.8778 25.5441C93.01 25.5323 93.2667 25.5049 93.4572 25.4971C93.6478 25.4892 93.8228 25.4971 93.9861 25.4971H94.0794C94.4874 25.5179 94.8924 25.5783 95.2888 25.6773C95.6797 25.777 96.062 25.908 96.4321 26.0691C97.7406 26.6991 98.9343 27.5469 99.9631 28.577C100.413 28.0927 100.892 27.6373 101.398 27.2133C102.014 26.6855 102.688 26.2319 103.408 25.8615C104.146 25.4824 104.948 25.2497 105.773 25.1757C107.813 25.0311 109.843 25.5739 111.544 26.7188C113.244 27.8636 114.519 29.5455 115.168 31.5001C115.425 32.2722 115.585 33.074 115.642 33.8864C115.705 34.71 115.644 35.5384 115.46 36.3433C115.066 37.9147 114.359 39.3892 113.383 40.6771C112.448 41.9485 111.425 43.1518 110.323 44.2782C109.475 45.1637 108.588 46.0415 107.733 46.8918H114.316L115.269 44.2116C115.317 44.0884 115.402 43.9834 115.512 43.9111C115.622 43.8388 115.752 43.8028 115.883 43.808C116.023 43.8207 116.155 43.8807 116.256 43.9781C116.358 44.0756 116.424 44.2048 116.443 44.3448L117.948 54.1723L118.924 39.1842C118.932 39.0316 118.994 38.8868 119.099 38.7769C119.204 38.6669 119.346 38.5991 119.497 38.5862C119.648 38.5733 119.798 38.6161 119.921 38.7066C120.043 38.7971 120.128 38.9292 120.161 39.0784L122.082 47.1073H127.88L129.883 41.6293C129.933 41.4949 130.026 41.3814 130.148 41.3074C130.27 41.2335 130.414 41.2034 130.555 41.222C130.696 41.2406 130.827 41.3069 130.926 41.4101C131.025 41.5132 131.086 41.6471 131.1 41.79L132.399 56.4018L134.868 17.7816C134.879 17.6215 134.949 17.4715 135.066 17.3617C135.182 17.2519 135.335 17.1906 135.494 17.1899C135.653 17.1905 135.805 17.2513 135.921 17.3603C136.037 17.4692 136.108 17.6183 136.12 17.7777L137.948 43.0008L139.115 37.6795C139.146 37.5395 139.223 37.4142 139.334 37.3239C139.445 37.2337 139.583 37.1836 139.725 37.1819C139.867 37.1823 140.005 37.2308 140.116 37.3197C140.228 37.4085 140.306 37.5325 140.339 37.6717L142.533 47.0759H152.643C152.81 47.0759 152.971 47.1428 153.089 47.2619C153.207 47.3809 153.273 47.5424 153.273 47.7107C153.273 47.8791 153.207 48.0405 153.089 48.1596C152.971 48.2786 152.81 48.3455 152.643 48.3455H142.031C141.889 48.3451 141.751 48.2965 141.64 48.2077C141.528 48.1189 141.45 47.9949 141.417 47.8557L139.741 40.6771L138.286 47.2679C138.268 47.3549 138.232 47.4373 138.181 47.51C138.131 47.5828 138.066 47.6444 137.991 47.6911C137.84 47.7824 137.661 47.8119 137.489 47.7734C137.349 47.7408 137.222 47.6632 137.129 47.5523C137.036 47.4415 136.981 47.3032 136.972 47.1582L135.521 27.0723L133.208 63.2513C133.189 63.4356 133.103 63.6063 132.966 63.7304C132.83 63.8545 132.653 63.9232 132.469 63.9232C132.285 63.9232 132.108 63.8545 131.971 63.7304C131.835 63.6063 131.749 63.4356 131.73 63.2513L130.081 44.7014L128.946 47.8361C128.89 47.9841 128.791 48.1117 128.662 48.2019C128.533 48.2921 128.379 48.3408 128.222 48.3416H121.701C121.527 48.3412 121.358 48.282 121.221 48.1733C121.084 48.0645 120.987 47.9127 120.947 47.7421L119.912 43.4083L118.952 58.4198C118.938 58.6188 118.852 58.8057 118.711 58.9449C118.569 59.0842 118.381 59.166 118.184 59.1747C117.986 59.1834 117.792 59.1184 117.639 58.9922C117.486 58.866 117.384 58.6873 117.353 58.4904L115.596 47.0211L115.374 47.6402C115.317 47.8016 115.211 47.9411 115.072 48.0393C114.933 48.1376 114.766 48.1898 114.596 48.1888H106.589C106.401 48.1896 106.217 48.1254 106.07 48.0068C105.922 47.8882 105.819 47.7223 105.778 47.5367C105.736 47.3511 105.759 47.1568 105.843 46.9861C105.926 46.8153 106.064 46.6784 106.236 46.5979L106.838 45.9944C107.69 45.152 108.569 44.2782 109.405 43.4044C110.467 42.3232 111.45 41.1669 112.349 39.9444C113.232 38.7881 113.872 37.4629 114.231 36.0494C114.387 35.3664 114.438 34.6634 114.382 33.9648C114.333 33.2602 114.195 32.5649 113.97 31.8959C113.527 30.5486 112.735 29.3448 111.676 28.4087C110.617 27.4726 109.33 26.8381 107.947 26.5707C107.26 26.4322 106.558 26.3848 105.858 26.4296C105.199 26.4924 104.558 26.6813 103.968 26.9861C103.336 27.3064 102.743 27.701 102.203 28.1616C101.641 28.6361 101.112 29.1493 100.62 29.6976C100.465 29.8682 100.249 29.97 100.02 29.981C99.7904 29.992 99.5659 29.9113 99.3953 29.7564L99.372 29.729C98.3846 28.6842 97.2189 27.8268 95.9305 27.1977C95.6265 27.0614 95.3117 26.9513 94.9894 26.8685C94.6735 26.7889 94.3504 26.7416 94.025 26.7274H93.9745C93.8189 26.7274 93.6867 26.7274 93.5389 26.7274H93.5156C93.3445 26.7274 93.1812 26.7274 93.0062 26.7666C92.9128 26.7666 92.8078 26.7941 92.699 26.8097L92.5084 26.8372L92.3256 26.8763C92.2209 26.8932 92.117 26.9154 92.0145 26.943C91.3373 27.1058 90.6838 27.356 90.0702 27.6875C89.4595 28.0175 88.8946 28.4272 88.3903 28.9061C87.8769 29.3955 87.432 29.9531 87.0681 30.5636C86.7045 31.1558 86.4195 31.7934 86.2204 32.4601C86.0195 33.131 85.9045 33.8249 85.8782 34.5252C85.8623 34.8714 85.87 35.2184 85.9015 35.5635C85.9348 35.9057 85.9933 36.245 86.0765 36.5784C86.4643 37.9477 87.126 39.2225 88.0208 40.3245C88.9486 41.4992 89.9625 42.602 91.054 43.6238C91.9679 44.5054 92.9323 45.3793 93.8656 46.2256L94.1883 46.5156C94.348 46.5869 94.4836 46.7033 94.5789 46.8508C94.6742 46.9982 94.7249 47.1704 94.725 47.3463V47.4129C94.727 47.5322 94.7049 47.6507 94.6601 47.7612C94.6153 47.8716 94.5487 47.9718 94.4644 48.0556C94.3398 48.1788 94.1827 48.2635 94.0118 48.2996C93.8409 48.3357 93.6633 48.3218 93.5 48.2593H84.0233C83.8272 48.2583 83.6367 48.1937 83.4798 48.0752C83.3229 47.9566 83.2081 47.7904 83.1522 47.601L82.3744 44.8581L80.9356 52.4795C80.8957 52.7007 80.7778 52.9 80.6036 53.0406C80.4295 53.1812 80.2107 53.2537 79.9877 53.2446C79.7647 53.2356 79.5525 53.1456 79.3901 52.9913C79.2277 52.837 79.1261 52.6288 79.104 52.405L77.3619 36.4961L76.0514 47.5226C76.022 47.7595 75.9078 47.9774 75.7302 48.1355C75.5527 48.2935 75.3239 48.3807 75.087 48.3808H66.9868C66.7659 48.382 66.5512 48.3074 66.3781 48.1692C66.2049 48.031 66.0836 47.8375 66.0341 47.6206L64.6925 41.8448L63.557 47.0211C63.5044 47.2565 63.3698 47.465 63.1775 47.6088C62.9852 47.7526 62.748 47.822 62.5092 47.8044C62.2704 47.7869 62.0458 47.6835 61.8763 47.5131C61.7067 47.3427 61.6035 47.1167 61.5854 46.8761L60.4849 31.6451L58.4822 62.9692C58.4645 63.2429 58.3441 63.4996 58.1456 63.6874C57.947 63.8751 57.6851 63.9797 57.4128 63.9801V63.9645Z" fill="#EE1164"/>
<path d="M71.1777 67.6445C71.458 67.6445 71.6973 67.7471 71.8955 67.9521C72.1006 68.1504 72.2031 68.3896 72.2031 68.6699V80.9746C72.2031 81.2549 72.1006 81.4976 71.8955 81.7026C71.6973 81.9009 71.458 82 71.1777 82C70.8975 82 70.6548 81.9009 70.4497 81.7026C70.2515 81.4976 70.1523 81.2549 70.1523 80.9746V69.6953H66.0508V80.9746C66.0508 81.2549 65.9482 81.4976 65.7432 81.7026C65.5449 81.9009 65.3057 82 65.0254 82C64.7451 82 64.5024 81.9009 64.2974 81.7026C64.0991 81.4976 64 81.2549 64 80.9746V68.6699C64 68.3896 64.0991 68.1504 64.2974 67.9521C64.5024 67.7471 64.7451 67.6445 65.0254 67.6445H71.1777ZM76.3047 69.6953V73.7969H78.3555C78.9229 73.7969 79.4048 73.5986 79.8013 73.2021C80.2046 72.7988 80.4062 72.3135 80.4062 71.7461C80.4062 71.1787 80.2046 70.6968 79.8013 70.3003C79.4048 69.897 78.9229 69.6953 78.3555 69.6953H76.3047ZM76.3047 80.9746C76.3047 81.2549 76.2021 81.4976 75.9971 81.7026C75.7988 81.9009 75.5596 82 75.2793 82C74.999 82 74.7563 81.9009 74.5513 81.7026C74.353 81.4976 74.2539 81.2549 74.2539 80.9746V68.6699C74.2539 68.3896 74.353 68.1504 74.5513 67.9521C74.7563 67.7471 74.999 67.6445 75.2793 67.6445H78.3555C79.4902 67.6445 80.4575 68.0444 81.2573 68.8442C82.0571 69.644 82.457 70.6113 82.457 71.7461C82.457 72.8809 82.0571 73.8481 81.2573 74.6479C80.4575 75.4478 79.4902 75.8477 78.3555 75.8477H76.3047V80.9746ZM84.5078 71.7461C84.5078 70.6113 84.9077 69.644 85.7075 68.8442C86.5073 68.0444 87.4746 67.6445 88.6094 67.6445C89.7441 67.6445 90.7114 68.0444 91.5112 68.8442C92.311 69.644 92.7109 70.6113 92.7109 71.7461V77.8984C92.7109 79.0332 92.311 80.0005 91.5112 80.8003C90.7114 81.6001 89.7441 82 88.6094 82C87.4746 82 86.5073 81.6001 85.7075 80.8003C84.9077 80.0005 84.5078 79.0332 84.5078 77.8984V71.7461ZM90.6602 71.7461C90.6602 71.1787 90.4585 70.6968 90.0552 70.3003C89.6587 69.897 89.1768 69.6953 88.6094 69.6953C88.042 69.6953 87.5566 69.897 87.1533 70.3003C86.7568 70.6968 86.5586 71.1787 86.5586 71.7461V77.8984C86.5586 78.4658 86.7568 78.9512 87.1533 79.3545C87.5566 79.751 88.042 79.9492 88.6094 79.9492C89.1768 79.9492 89.6587 79.751 90.0552 79.3545C90.4585 78.9512 90.6602 78.4658 90.6602 77.8984V71.7461ZM96.8125 80.9746C96.8125 81.2549 96.71 81.4976 96.5049 81.7026C96.3066 81.9009 96.0674 82 95.7871 82C95.5068 82 95.2642 81.9009 95.0591 81.7026C94.8608 81.4976 94.7617 81.2549 94.7617 80.9746V68.6699C94.7617 68.3896 94.8608 68.1504 95.0591 67.9521C95.2642 67.7471 95.5068 67.6445 95.7871 67.6445C96.0674 67.6445 96.3101 67.7437 96.5151 67.9419C96.5972 68.0308 96.6621 68.123 96.71 68.2188L98.8633 72.5254L101.017 68.2188C101.064 68.123 101.133 68.0308 101.222 67.9419C101.42 67.7437 101.659 67.6445 101.939 67.6445C102.22 67.6445 102.459 67.7471 102.657 67.9521C102.862 68.1504 102.965 68.3896 102.965 68.6699V80.9746C102.965 81.2549 102.862 81.4976 102.657 81.7026C102.459 81.9009 102.22 82 101.939 82C101.659 82 101.417 81.9009 101.211 81.7026C101.013 81.4976 100.914 81.2549 100.914 80.9746V73.0176L100.012 74.8223L98.8633 77.1191L97.7148 74.8223L96.8125 73.0176V80.9746ZM111.168 73.0176L106.964 81.4258C106.916 81.5215 106.848 81.6104 106.759 81.6924C106.561 81.8975 106.321 82 106.041 82C105.761 82 105.518 81.9009 105.313 81.7026C105.115 81.4976 105.016 81.2549 105.016 80.9746V68.6699C105.016 68.3896 105.115 68.1504 105.313 67.9521C105.518 67.7471 105.761 67.6445 106.041 67.6445C106.321 67.6445 106.561 67.7471 106.759 67.9521C106.964 68.1504 107.066 68.3896 107.066 68.6699V76.627L111.271 68.2188C111.318 68.123 111.383 68.0308 111.465 67.9419C111.67 67.7437 111.913 67.6445 112.193 67.6445C112.474 67.6445 112.713 67.7471 112.911 67.9521C113.116 68.1504 113.219 68.3896 113.219 68.6699V80.9746C113.219 81.2549 113.116 81.4976 112.911 81.7026C112.713 81.9009 112.474 82 112.193 82C111.913 82 111.67 81.9009 111.465 81.7026C111.267 81.4976 111.168 81.2549 111.168 80.9746V73.0176ZM123.473 80.9746C123.473 81.2549 123.37 81.4976 123.165 81.7026C122.967 81.9009 122.728 82 122.447 82C122.167 82 121.924 81.9009 121.719 81.7026C121.521 81.4976 121.422 81.2549 121.422 80.9746V69.6953H118.346V80.9746C118.346 81.2549 118.243 81.4976 118.038 81.7026C117.84 81.9009 117.266 82 116.315 82C116.035 82 115.792 81.9009 115.587 81.7026C115.389 81.4976 115.29 81.2549 115.29 80.9746C115.29 80.6943 115.389 80.4551 115.587 80.2568C115.792 80.0518 116.028 79.9492 116.295 79.9492V68.6699C116.295 68.3896 116.394 68.1504 116.592 67.9521C116.797 67.7471 117.04 67.6445 117.32 67.6445H122.447C122.728 67.6445 122.967 67.7471 123.165 67.9521C123.37 68.1504 123.473 68.3896 123.473 68.6699V80.9746ZM133.727 80.9746C133.727 81.2549 133.624 81.4976 133.419 81.7026C133.221 81.9009 132.981 82 132.701 82C132.421 82 132.178 81.9009 131.973 81.7026C131.775 81.4976 131.676 81.2549 131.676 80.9746V69.6953H128.6V80.9746C128.6 81.2549 128.497 81.4976 128.292 81.7026C128.094 81.9009 127.52 82 126.569 82C126.289 82 126.046 81.9009 125.841 81.7026C125.643 81.4976 125.544 81.2549 125.544 80.9746C125.544 80.6943 125.643 80.4551 125.841 80.2568C126.046 80.0518 126.282 79.9492 126.549 79.9492V68.6699C126.549 68.3896 126.648 68.1504 126.846 67.9521C127.051 67.7471 127.294 67.6445 127.574 67.6445H132.701C132.981 67.6445 133.221 67.7471 133.419 67.9521C133.624 68.1504 133.727 68.3896 133.727 68.6699V80.9746ZM142.955 67.6445C143.235 67.6445 143.475 67.7471 143.673 67.9521C143.878 68.1504 143.98 68.3896 143.98 68.6699C143.98 68.9502 143.878 69.1929 143.673 69.3979C143.475 69.5962 143.235 69.6953 142.955 69.6953H137.828V73.7969H141.93C142.21 73.7969 142.449 73.8994 142.647 74.1045C142.853 74.3027 142.955 74.542 142.955 74.8223C142.955 75.1025 142.853 75.3452 142.647 75.5503C142.449 75.7485 142.21 75.8477 141.93 75.8477H137.828V79.9492H142.955C143.235 79.9492 143.475 80.0518 143.673 80.2568C143.878 80.4551 143.98 80.6943 143.98 80.9746C143.98 81.2549 143.878 81.4976 143.673 81.7026C143.475 81.9009 143.235 82 142.955 82H136.803C136.522 82 136.28 81.9009 136.075 81.7026C135.876 81.4976 135.777 81.2549 135.777 80.9746V68.6699C135.777 68.3896 135.876 68.1504 136.075 67.9521C136.28 67.7471 136.522 67.6445 136.803 67.6445H142.955Z" fill="#EE1164"/>
</g>
<defs>
<clipPath id="clip0">
<rect width="200" height="84" fill="white"/>
</clipPath>
</defs>
</svg>
